EESchema Schematic File Version 4
EELAYER 30 0
EELAYER END
$Descr A3 16535 11693
encoding utf-8
Sheet 1 1
Title "ISM versatile development board"
Date "2021-06-02"
Rev "1.0"
Comp ""
Comment1 "This Schematic is licensed under MIT Open Source License."
Comment2 ""
Comment3 ""
Comment4 ""
$EndDescr
$Comp
L Device:C_Small C17
U 1 1 60B0855B
P 7050 2950
F 0 "C17" H 7150 3025 50  0000 L CNN
F 1 "GCM1555C1H101FA16J" H 7142 2905 50  0001 L CNN
F 2 "Capacitor_SMD:C_0402_1005Metric" H 7050 2950 50  0001 C CNN
F 3 "~" H 7050 2950 50  0001 C CNN
F 4 "100pF" H 7275 2900 50  0000 C CNN "Component-Value"
	1    7050 2950
	1    0    0    -1  
$EndComp
$Comp
L Device:C_Small C16
U 1 1 60B09082
P 6650 2950
F 0 "C16" H 6675 3025 50  0000 L CNN
F 1 "GCM1555C1H101FA16J" H 6675 2875 50  0001 L CNN
F 2 "Capacitor_SMD:C_0402_1005Metric" H 6650 2950 50  0001 C CNN
F 3 "~" H 6650 2950 50  0001 C CNN
F 4 "100pF" H 6775 2875 50  0000 C CNN "Component-Value"
	1    6650 2950
	1    0    0    -1  
$EndComp
$Comp
L power:+3.3V #PWR030
U 1 1 60B17F50
P 5900 2650
F 0 "#PWR030" H 5900 2500 50  0001 C CNN
F 1 "+3.3V" H 5915 2823 50  0000 C CNN
F 2 "" H 5900 2650 50  0001 C CNN
F 3 "" H 5900 2650 50  0001 C CNN
	1    5900 2650
	1    0    0    -1  
$EndComp
$Comp
L Device:C_Small C15
U 1 1 60D57DE4
P 6275 2950
F 0 "C15" H 6325 3025 50  0000 L CNN
F 1 "GRM1555C1H102GA01D" H 6367 2905 50  0001 L CNN
F 2 "Capacitor_SMD:C_0402_1005Metric" H 6275 2950 50  0001 C CNN
F 3 "~" H 6275 2950 50  0001 C CNN
F 4 "1nF" H 6425 2875 50  0000 C CNN "Component-Value"
	1    6275 2950
	1    0    0    -1  
$EndComp
$Comp
L Device:C_Small C14
U 1 1 60D58283
P 5900 2950
F 0 "C14" H 5725 3025 50  0000 L CNN
F 1 "GRM21BC71H475KE11K" H 5992 2905 50  0001 L CNN
F 2 "Capacitor_SMD:C_0805_2012Metric" H 5900 2950 50  0001 C CNN
F 3 "~" H 5900 2950 50  0001 C CNN
F 4 "4.7uF" H 5750 2825 50  0000 C CNN "Component-Value"
	1    5900 2950
	1    0    0    -1  
$EndComp
Wire Wire Line
	5900 2750 5900 2850
Wire Wire Line
	6275 2750 5900 2750
Wire Wire Line
	6650 2750 6650 2850
Wire Wire Line
	7050 2850 7050 2750
Text GLabel 6650 2750 1    50   Input ~ 0
VDDA1
Text GLabel 7050 2750 1    50   Input ~ 0
VDDA2
$Comp
L power:GND #PWR031
U 1 1 60DB3C05
P 6650 3275
F 0 "#PWR031" H 6650 3025 50  0001 C CNN
F 1 "GND" H 6655 3102 50  0000 C CNN
F 2 "" H 6650 3275 50  0001 C CNN
F 3 "" H 6650 3275 50  0001 C CNN
	1    6650 3275
	1    0    0    -1  
$EndComp
Wire Wire Line
	6650 3050 6650 3200
Wire Wire Line
	5900 2650 5900 2750
Connection ~ 5900 2750
Wire Wire Line
	6275 2750 6275 2850
Wire Wire Line
	5900 3050 6100 3050
Wire Wire Line
	7050 3050 7050 3200
Wire Wire Line
	7050 3200 6650 3200
Connection ~ 6650 3200
Wire Wire Line
	6650 3200 6650 3275
Wire Wire Line
	6650 3200 6100 3200
Wire Wire Line
	6100 3200 6100 3050
Connection ~ 6100 3050
Wire Wire Line
	6100 3050 6275 3050
$Comp
L Device:R_Small R2
U 1 1 60EF5DCD
P 8050 9250
F 0 "R2" V 7854 9250 50  0000 C CNN
F 1 "RC0603JR-071KL" V 7945 9250 50  0001 C CNN
F 2 "Resistor_SMD:R_0603_1608Metric" H 8050 9250 50  0001 C CNN
F 3 "~" H 8050 9250 50  0001 C CNN
F 4 "1k" V 7950 9250 50  0000 C CNN "Component-Value"
	1    8050 9250
	0    1    1    0   
$EndComp
$Comp
L Device:LED_Small D1
U 1 1 60EF691F
P 8500 9250
F 0 "D1" H 8500 9043 50  0000 C CNN
F 1 "LTST-C191KFKT" H 8475 9150 50  0000 C CNN
F 2 "LED_SMD:LED_0603_1608Metric" V 8500 9250 50  0001 C CNN
F 3 "~" V 8500 9250 50  0001 C CNN
	1    8500 9250
	-1   0    0    1   
$EndComp
$Comp
L power:GND #PWR09
U 1 1 60EFDCDB
P 8775 9250
F 0 "#PWR09" H 8775 9000 50  0001 C CNN
F 1 "GND" H 8780 9077 50  0000 C CNN
F 2 "" H 8775 9250 50  0000 C CNN
F 3 "" H 8775 9250 50  0000 C CNN
	1    8775 9250
	1    0    0    -1  
$EndComp
Wire Wire Line
	8150 9250 8400 9250
Wire Wire Line
	8600 9250 8775 9250
$Comp
L power:+3.3V #PWR01
U 1 1 60F0E0C1
P 7575 10125
F 0 "#PWR01" H 7575 9975 50  0001 C CNN
F 1 "+3.3V" H 7590 10298 50  0000 C CNN
F 2 "" H 7575 10125 50  0001 C CNN
F 3 "" H 7575 10125 50  0001 C CNN
	1    7575 10125
	1    0    0    -1  
$EndComp
$Comp
L Device:R_Small R3
U 1 1 60F0E0C7
P 8075 10150
F 0 "R3" V 7879 10150 50  0000 C CNN
F 1 "RC0603JR-071KL" V 7970 10150 50  0001 C CNN
F 2 "Resistor_SMD:R_0603_1608Metric" H 8075 10150 50  0001 C CNN
F 3 "~" H 8075 10150 50  0001 C CNN
F 4 "1k" V 7975 10150 50  0000 C CNN "Component-Value"
	1    8075 10150
	0    1    1    0   
$EndComp
$Comp
L Device:LED_Small D2
U 1 1 60F0E0CD
P 8525 10150
F 0 "D2" H 8525 9943 50  0000 C CNN
F 1 "LTST-C191TGKT" H 8525 10034 50  0000 C CNN
F 2 "LED_SMD:LED_0603_1608Metric" V 8525 10150 50  0001 C CNN
F 3 "~" V 8525 10150 50  0001 C CNN
	1    8525 10150
	-1   0    0    1   
$EndComp
$Comp
L power:GND #PWR010
U 1 1 60F0E0D3
P 8800 10150
F 0 "#PWR010" H 8800 9900 50  0001 C CNN
F 1 "GND" H 8805 9977 50  0000 C CNN
F 2 "" H 8800 10150 50  0000 C CNN
F 3 "" H 8800 10150 50  0000 C CNN
	1    8800 10150
	1    0    0    -1  
$EndComp
Wire Wire Line
	7575 10125 7575 10150
Wire Wire Line
	7575 10150 7975 10150
Wire Wire Line
	8175 10150 8425 10150
Wire Wire Line
	8625 10150 8800 10150
Text GLabel 7550 9250 0    50   Input ~ 0
DCLK
Wire Wire Line
	7550 9250 7950 9250
$Comp
L power:+3.3V #PWR038
U 1 1 5816C55D
P 14850 1325
F 0 "#PWR038" H 14850 1175 50  0001 C CNN
F 1 "+3.3V" H 14865 1498 50  0000 C CNN
F 2 "" H 14850 1325 50  0000 C CNN
F 3 "" H 14850 1325 50  0000 C CNN
	1    14850 1325
	1    0    0    -1  
$EndComp
$Comp
L Device:C C18
U 1 1 5816AD12
P 12975 1525
F 0 "C18" H 13100 1625 60  0000 L CNN
F 1 "GCJ21BR71E105KA12L" V 13000 1653 60  0001 L CNN
F 2 "Capacitor_SMD:C_0805_2012Metric" H 12225 1575 60  0001 C CNN
F 3 "~" H 12325 1675 60  0001 C CNN
F 4 "1uF" H 13100 1450 60  0000 L CNN "Component-Value"
	1    12975 1525
	1    0    0    -1  
$EndComp
$Comp
L Regulator_Linear:AP2127N-3.3 U6
U 1 1 61092939
P 14100 1325
F 0 "U6" H 14100 1567 50  0000 C CNN
F 1 "AP2125N-3.3TRG1" H 14100 1476 50  0000 C CNN
F 2 "Package_TO_SOT_SMD:SOT-23" H 14100 1550 50  0001 C CIN
F 3 "https://www.diodes.com/assets/Datasheets/AP2127.pdf" H 14100 1325 50  0001 C CNN
	1    14100 1325
	1    0    0    -1  
$EndComp
Wire Wire Line
	14400 1325 14850 1325
Wire Wire Line
	12975 1375 12975 1325
Connection ~ 12975 1325
Wire Wire Line
	12975 1325 13800 1325
$Comp
L Device:C_Small C8
U 1 1 58218356
P 4125 3450
F 0 "C8" H 4300 3500 60  0000 L CNN
F 1 "GRM155R61A104KA01D" H 4100 3737 60  0001 C CNN
F 2 "Capacitor_SMD:C_0402_1005Metric" H 4375 3500 60  0001 C CNN
F 3 "~" H 4375 3500 60  0001 C CNN
F 4 "0.10uF" H 4250 3400 60  0000 L CNN "Component-Value"
	1    4125 3450
	1    0    0    -1  
$EndComp
$Comp
L power:GND #PWR05
U 1 1 582190B8
P 4125 3675
F 0 "#PWR05" H 4125 3425 50  0001 C CNN
F 1 "GND" H 4130 3502 50  0000 C CNN
F 2 "" H 4125 3675 50  0000 C CNN
F 3 "" H 4125 3675 50  0000 C CNN
	1    4125 3675
	1    0    0    -1  
$EndComp
$Comp
L power:+3.3V #PWR04
U 1 1 58219330
P 4125 2625
F 0 "#PWR04" H 4125 2475 50  0001 C CNN
F 1 "+3.3V" H 4140 2798 50  0000 C CNN
F 2 "" H 4125 2625 50  0000 C CNN
F 3 "" H 4125 2625 50  0000 C CNN
	1    4125 2625
	1    0    0    -1  
$EndComp
$Comp
L power:GND #PWR012
U 1 1 58219BE3
P 3300 1600
F 0 "#PWR012" H 3300 1350 50  0001 C CNN
F 1 "GND" H 3305 1427 50  0000 C CNN
F 2 "" H 3300 1600 50  0000 C CNN
F 3 "" H 3300 1600 50  0000 C CNN
	1    3300 1600
	1    0    0    -1  
$EndComp
$Comp
L power:+3.3V #PWR02
U 1 1 5821A692
P 1250 1150
F 0 "#PWR02" H 1250 1000 50  0001 C CNN
F 1 "+3.3V" H 1265 1323 50  0000 C CNN
F 2 "" H 1250 1150 50  0000 C CNN
F 3 "" H 1250 1150 50  0000 C CNN
	1    1250 1150
	1    0    0    -1  
$EndComp
$Comp
L power:GND #PWR035
U 1 1 58221381
P 9075 1675
F 0 "#PWR035" H 9075 1425 50  0001 C CNN
F 1 "GND" H 9080 1502 50  0000 C CNN
F 2 "" H 9075 1675 50  0000 C CNN
F 3 "" H 9075 1675 50  0000 C CNN
	1    9075 1675
	1    0    0    -1  
$EndComp
$Comp
L Device:C_Small C7
U 1 1 582D1018
P 4000 1400
F 0 "C7" H 4075 1575 60  0000 L CNN
F 1 "GRM155R61A104KA01D" H 3975 1687 60  0001 C CNN
F 2 "Capacitor_SMD:C_0402_1005Metric" H 4250 1450 60  0001 C CNN
F 3 "~" H 4250 1450 60  0001 C CNN
F 4 "0.10uF" H 4075 1500 60  0000 L CNN "Component-Value"
	1    4000 1400
	1    0    0    -1  
$EndComp
Wire Wire Line
	3525 3675 4125 3675
Connection ~ 3300 1600
$Comp
L Connector:USB_B_Micro J3
U 1 1 6100217D
P 9075 1275
F 0 "J3" H 8950 1650 50  0000 R CNN
F 1 "47346-0001" H 9650 850 50  0000 R CNN
F 2 "Connector_USB:USB_Micro-B_Molex_47346-0001" H 9225 1225 50  0001 C CNN
F 3 "https://eu.mouser.com/datasheet/2/276/0473460001_IO_CONNECTORS-229243.pdf" H 9225 1225 50  0001 C CNN
	1    9075 1275
	-1   0    0    -1  
$EndComp
NoConn ~ 9175 1675
NoConn ~ 8775 1475
Text GLabel 6000 1250 0    60   Input ~ 0
USB_CONN_D+
Text GLabel 6000 1450 0    60   Input ~ 0
USB_D+
Text GLabel 7000 1250 2    60   Input ~ 0
USB_CONN_D-
Text GLabel 7000 1450 2    60   Input ~ 0
USB_D-
$Comp
L power:GND #PWR032
U 1 1 6120BB4D
P 6500 1850
F 0 "#PWR032" H 6500 1600 50  0001 C CNN
F 1 "GND" H 6505 1677 50  0000 C CNN
F 2 "" H 6500 1850 50  0001 C CNN
F 3 "" H 6500 1850 50  0001 C CNN
	1    6500 1850
	1    0    0    -1  
$EndComp
Text GLabel 8775 1275 0    60   Input ~ 0
USB_CONN_D+
Text GLabel 8775 1375 0    60   Input ~ 0
USB_CONN_D-
$Comp
L Device:C_Small C11
U 1 1 61868C77
P 3050 6900
AR Path="/61868C77" Ref="C11"  Part="1" 
AR Path="/58213BEA/61868C77" Ref="C?"  Part="1" 
F 0 "C11" H 2875 6950 60  0000 C CNN
F 1 "CL05C090CB5NNNC" H 3075 7187 60  0001 C CNN
F 2 "Capacitor_SMD:C_0402_1005Metric" H 2300 6950 60  0001 C CNN
F 3 "~" H 2400 7050 60  0001 C CNN
F 4 "9pF" H 2875 6850 60  0000 C CNN "Component-Value"
	1    3050 6900
	1    0    0    -1  
$EndComp
$Comp
L Device:C_Small C12
U 1 1 61868C8E
P 3725 6900
AR Path="/61868C8E" Ref="C12"  Part="1" 
AR Path="/58213BEA/61868C8E" Ref="C?"  Part="1" 
F 0 "C12" H 3900 7000 60  0000 C CNN
F 1 "CL05C090CB5NNNC" H 3750 7187 60  0001 C CNN
F 2 "Capacitor_SMD:C_0402_1005Metric" H 2975 6950 60  0001 C CNN
F 3 "~" H 3075 7050 60  0001 C CNN
F 4 "9pF" H 3900 6900 60  0000 C CNN "Component-Value"
	1    3725 6900
	1    0    0    -1  
$EndComp
$Comp
L Device:Crystal X2
U 1 1 61868CA5
P 3400 6700
AR Path="/61868CA5" Ref="X2"  Part="1" 
AR Path="/58213BEA/61868CA5" Ref="X?"  Part="1" 
F 0 "X2" H 3375 6475 60  0000 C CNN
F 1 "ABS05-32.768KHZ-9-T" H 3400 5925 60  0000 C CNN
F 2 "eec:Abracon-ABS05-0-0-MFG" H 3350 6600 60  0001 C CNN
F 3 "http://www.abracon.com/Resonators/ABS05.pdf" H 5700 8500 60  0001 C CNN
F 4 "32.768KHZ-9pF-Loading" H 5000 8600 60  0001 C CNN "Component-Value"
	1    3400 6700
	1    0    0    -1  
$EndComp
Wire Wire Line
	6000 1250 6100 1250
Wire Wire Line
	6100 1450 6000 1450
Wire Wire Line
	6500 1750 6500 1850
Wire Wire Line
	7000 1450 6900 1450
Wire Wire Line
	7000 1250 6900 1250
Wire Wire Line
	6500 850  6500 950 
Text GLabel 4250 3175 2    50   Input ~ 0
NRST
Text GLabel 3725 6550 1    50   Input ~ 0
OSC32_OUT
Text GLabel 3050 6550 1    50   Input ~ 0
OSC32_IN
$Comp
L power:GND #PWR0102
U 1 1 6100B408
P 3400 7175
AR Path="/6100B408" Ref="#PWR0102"  Part="1" 
AR Path="/58213BEA/6100B408" Ref="#PWR?"  Part="1" 
F 0 "#PWR0102" H 3400 6925 50  0001 C CNN
F 1 "GND" H 3405 7002 50  0000 C CNN
F 2 "" H 3400 7175 50  0000 C CNN
F 3 "" H 3400 7175 50  0000 C CNN
	1    3400 7175
	1    0    0    -1  
$EndComp
Wire Wire Line
	3550 6700 3725 6700
Wire Wire Line
	3050 7150 3400 7150
Wire Wire Line
	3400 7175 3400 7150
Connection ~ 3400 7150
Wire Wire Line
	3400 7150 3725 7150
Wire Wire Line
	3050 6550 3050 6700
Wire Wire Line
	3725 6550 3725 6700
Text GLabel 8775 1075 0    50   Input ~ 0
VBUS
Text GLabel 6500 850  1    50   Input ~ 0
VBUS
Wire Wire Line
	10600 1075 10600 1025
$Comp
L wp_symbols:P5V #PWR0103
U 1 1 60D6A956
P 11025 1225
F 0 "#PWR0103" H 11025 1075 50  0001 C CNN
F 1 "P5V" H 11040 1398 50  0000 C CNN
F 2 "" H 11025 1225 50  0001 C CNN
F 3 "" H 11025 1225 50  0001 C CNN
	1    11025 1225
	1    0    0    -1  
$EndComp
Wire Wire Line
	11025 1225 11025 1325
$Comp
L power:+3.3VA #PWR0112
U 1 1 60B86952
P 2025 1150
F 0 "#PWR0112" H 2025 1000 50  0001 C CNN
F 1 "+3.3VA" H 2040 1323 50  0000 C CNN
F 2 "" H 2025 1150 50  0001 C CNN
F 3 "" H 2025 1150 50  0001 C CNN
	1    2025 1150
	1    0    0    -1  
$EndComp
$Comp
L power:GND #PWR0115
U 1 1 60B97EE9
P 1875 1600
F 0 "#PWR0115" H 1875 1350 50  0001 C CNN
F 1 "GND" H 1880 1427 50  0000 C CNN
F 2 "" H 1875 1600 50  0000 C CNN
F 3 "" H 1875 1600 50  0000 C CNN
	1    1875 1600
	1    0    0    -1  
$EndComp
Wire Wire Line
	10600 1275 10600 1875
$Comp
L power:GND #PWR037
U 1 1 60F7515C
P 12650 1975
F 0 "#PWR037" H 12650 1725 50  0001 C CNN
F 1 "GND" H 12655 1802 50  0000 C CNN
F 2 "" H 12650 1975 50  0001 C CNN
F 3 "" H 12650 1975 50  0001 C CNN
	1    12650 1975
	1    0    0    -1  
$EndComp
Wire Wire Line
	12650 1975 12650 1875
Wire Wire Line
	10600 1875 12650 1875
Connection ~ 12650 1875
Wire Wire Line
	12975 1675 12975 1875
Wire Wire Line
	12650 1875 12975 1875
Wire Wire Line
	12975 1875 14100 1875
Connection ~ 12975 1875
$Comp
L power:VBUS #PWR0105
U 1 1 60C5A558
P 10600 825
F 0 "#PWR0105" H 10600 675 50  0001 C CNN
F 1 "VBUS" H 10615 998 50  0000 C CNN
F 2 "" H 10600 825 50  0001 C CNN
F 3 "" H 10600 825 50  0001 C CNN
	1    10600 825 
	1    0    0    -1  
$EndComp
Wire Wire Line
	10600 825  10600 1025
Connection ~ 10600 1025
$Comp
L Device:R_Small R5
U 1 1 60BE2D65
P 10600 1175
F 0 "R5" H 10350 1275 50  0000 L CNN
F 1 "RC0805JR-07100KL" H 10659 1130 50  0001 L CNN
F 2 "Resistor_SMD:R_0805_2012Metric" H 10600 1175 50  0001 C CNN
F 3 "~" H 10600 1175 50  0001 C CNN
F 4 "100k" H 10425 1175 50  0000 C CNN "Component-Value"
	1    10600 1175
	1    0    0    -1  
$EndComp
Wire Wire Line
	14100 1625 14100 1875
Connection ~ 14100 1875
Wire Wire Line
	14100 1875 14850 1875
$Comp
L Device:D_Schottky D3
U 1 1 60D2B721
P 11750 1025
F 0 "D3" H 11750 808 50  0000 C CNN
F 1 "MBR120ESFT1G" H 11750 899 50  0000 C CNN
F 2 "Diode_SMD:D_SOD-123" H 11750 1025 50  0001 C CNN
F 3 "~" H 11750 1025 50  0001 C CNN
	1    11750 1025
	-1   0    0    1   
$EndComp
Wire Wire Line
	11900 1025 11900 1325
Connection ~ 11900 1325
$Comp
L Device:R_Small R1
U 1 1 60E1DD9F
P 4125 2900
F 0 "R1" H 4184 2946 50  0000 L CNN
F 1 "RC0402JR-0710KL" H 4184 2855 50  0001 L CNN
F 2 "Resistor_SMD:R_0402_1005Metric" H 4125 2900 50  0001 C CNN
F 3 "~" H 4125 2900 50  0001 C CNN
F 4 "10k" H 4250 2875 50  0000 C CNN "Component-Value"
	1    4125 2900
	1    0    0    -1  
$EndComp
Wire Wire Line
	4125 2625 4125 2800
Wire Wire Line
	4125 3000 4125 3175
$Comp
L Device:C_Small C3
U 1 1 60E5F36A
P 2575 1400
F 0 "C3" H 2375 1550 60  0000 L CNN
F 1 "GRM188R6YA475KE15D" H 2550 1687 60  0001 C CNN
F 2 "Capacitor_SMD:C_0603_1608Metric" H 2825 1450 60  0001 C CNN
F 3 "~" H 2825 1450 60  0001 C CNN
F 4 "4.7uF" H 2300 1475 60  0000 L CNN "Component-Value"
	1    2575 1400
	-1   0    0    -1  
$EndComp
$Comp
L power:+3.3V #PWR0117
U 1 1 60E7FC47
P 2575 1150
F 0 "#PWR0117" H 2575 1000 50  0001 C CNN
F 1 "+3.3V" H 2590 1323 50  0000 C CNN
F 2 "" H 2575 1150 50  0000 C CNN
F 3 "" H 2575 1150 50  0000 C CNN
	1    2575 1150
	1    0    0    -1  
$EndComp
$Comp
L Device:C_Small C1
U 1 1 58219F06
P 1725 1400
F 0 "C1" H 1775 1525 60  0000 L CNN
F 1 "GRM155R6YA105KE11D" H 1700 1687 60  0001 C CNN
F 2 "Capacitor_SMD:C_0402_1005Metric" H 1975 1450 60  0001 C CNN
F 3 "~" H 1975 1450 60  0001 C CNN
F 4 "1uF" H 1800 1450 60  0000 L CNN "Component-Value"
	1    1725 1400
	1    0    0    -1  
$EndComp
$Comp
L Device:L_Small L2
U 1 1 60FED13E
P 1500 1150
F 0 "L2" V 1685 1150 50  0000 C CNN
F 1 "LQW15AN39NG8ZD" V 1594 1150 50  0001 C CNN
F 2 "Inductor_SMD:L_0402_1005Metric" H 1500 1150 50  0001 C CNN
F 3 "~" H 1500 1150 50  0001 C CNN
F 4 "39nH" V 1594 1150 50  0000 C CNN "Component-Value"
	1    1500 1150
	0    -1   -1   0   
$EndComp
Wire Wire Line
	11900 1325 12975 1325
$Comp
L Switch:SW_SPST SW1
U 1 1 5827AD8E
P 3825 3175
F 0 "SW1" H 3825 3306 60  0000 C CNN
F 1 "B3U-1000P" H 3825 3075 60  0001 C CNN
F 2 "Button_Switch_SMD:SW_SPST_B3U-1000P" H 3475 3175 60  0001 C CNN
F 3 "~" H 3575 3275 60  0001 C CNN
	1    3825 3175
	1    0    0    -1  
$EndComp
$Comp
L Device:LED_Small D4
U 1 1 613A264F
P 8500 8850
F 0 "D4" H 8500 8643 50  0000 C CNN
F 1 "LTST-C191TBKT" H 8500 8734 50  0000 C CNN
F 2 "LED_SMD:LED_0603_1608Metric" V 8500 8850 50  0001 C CNN
F 3 "~" V 8500 8850 50  0001 C CNN
	1    8500 8850
	-1   0    0    1   
$EndComp
$Comp
L power:GND #PWR0120
U 1 1 613A308F
P 8800 8850
F 0 "#PWR0120" H 8800 8600 50  0001 C CNN
F 1 "GND" H 8805 8677 50  0000 C CNN
F 2 "" H 8800 8850 50  0000 C CNN
F 3 "" H 8800 8850 50  0000 C CNN
	1    8800 8850
	1    0    0    -1  
$EndComp
Text GLabel 7725 8850 0    50   Input ~ 0
LED_STATUS
$Comp
L Device:R_Small R8
U 1 1 613A230C
P 8025 8850
F 0 "R8" V 7829 8850 50  0000 C CNN
F 1 "RC0603JR-071KL" V 7920 8850 50  0001 C CNN
F 2 "Resistor_SMD:R_0603_1608Metric" H 8025 8850 50  0001 C CNN
F 3 "~" H 8025 8850 50  0001 C CNN
F 4 "1k" V 7925 8850 50  0000 C CNN "Component-Value"
	1    8025 8850
	0    1    1    0   
$EndComp
Wire Wire Line
	7725 8850 7925 8850
Wire Wire Line
	8125 8850 8400 8850
Wire Wire Line
	8600 8850 8800 8850
Text GLabel 3075 4975 2    60   Input ~ 0
USB_D-
Text GLabel 3075 5075 2    60   Input ~ 0
USB_D+
Text GLabel 3075 5175 2    60   Input ~ 0
SWDIO
Text GLabel 3075 5275 2    60   Input ~ 0
SWCLK
$Comp
L power:GND #PWR0101
U 1 1 60D71586
P 2275 5700
F 0 "#PWR0101" H 2275 5450 50  0001 C CNN
F 1 "GND" H 2280 5527 50  0000 C CNN
F 2 "" H 2275 5700 50  0000 C CNN
F 3 "" H 2275 5700 50  0000 C CNN
	1    2275 5700
	1    0    0    -1  
$EndComp
Wire Wire Line
	2275 5575 2275 5650
Wire Wire Line
	2575 5575 2575 5650
Wire Wire Line
	2575 5650 2475 5650
Connection ~ 2275 5650
Wire Wire Line
	2275 5650 2275 5700
Wire Wire Line
	2375 5575 2375 5650
Connection ~ 2375 5650
Wire Wire Line
	2375 5650 2275 5650
Wire Wire Line
	2475 5575 2475 5650
Connection ~ 2475 5650
Wire Wire Line
	2475 5650 2375 5650
NoConn ~ 3075 3875
NoConn ~ 3075 3975
NoConn ~ 3075 4675
NoConn ~ 3075 5375
NoConn ~ 1875 4075
NoConn ~ 1875 4275
NoConn ~ 1875 4375
NoConn ~ 1875 4475
NoConn ~ 1875 4575
NoConn ~ 1875 4675
NoConn ~ 1875 4775
NoConn ~ 1875 4875
NoConn ~ 1875 4975
Text GLabel 1875 2875 0    50   Input ~ 0
NRST
$Comp
L power:GND #PWR013
U 1 1 60F93BC7
P 1350 3500
F 0 "#PWR013" H 1350 3250 50  0001 C CNN
F 1 "GND" H 1250 3350 50  0000 C CNN
F 2 "" H 1350 3500 50  0000 C CNN
F 3 "" H 1350 3500 50  0000 C CNN
	1    1350 3500
	1    0    0    -1  
$EndComp
Text GLabel 1875 3075 0    50   Input ~ 0
OSC_IN
Text GLabel 1875 3175 0    50   Input ~ 0
OSC_OUT
$Comp
L Device:R_Small R4
U 1 1 60F857D0
P 1350 3375
F 0 "R4" H 1150 3400 50  0000 L CNN
F 1 "RC0402JR-0710KL" H 1175 3375 50  0001 L CNN
F 2 "Resistor_SMD:R_0402_1005Metric" H 1350 3375 50  0001 C CNN
F 3 "~" H 1350 3375 50  0001 C CNN
F 4 "10k" H 1225 3325 50  0000 C CNN "Component-Value"
	1    1350 3375
	1    0    0    -1  
$EndComp
Text GLabel 1875 3575 0    50   Input ~ 0
OSC32_IN
Text GLabel 1875 3675 0    50   Input ~ 0
OSC32_OUT
Wire Wire Line
	1350 3275 1875 3275
Wire Wire Line
	1350 3475 1350 3500
Wire Wire Line
	2575 2575 2575 2675
Wire Wire Line
	2675 2675 2675 2625
Wire Wire Line
	2675 2625 2475 2625
Wire Wire Line
	2275 2625 2275 2675
Wire Wire Line
	2475 2675 2475 2625
Connection ~ 2475 2625
Wire Wire Line
	2475 2625 2375 2625
Wire Wire Line
	2375 2675 2375 2625
Connection ~ 2375 2625
Wire Wire Line
	2375 2625 2275 2625
Wire Wire Line
	2275 2575 2275 2625
Connection ~ 2275 2625
Text GLabel 1875 5075 0    50   Input ~ 0
SPI2_CS
Text GLabel 1875 5175 0    50   Input ~ 0
SPI2_SCLK
Text GLabel 1875 5275 0    50   Input ~ 0
SPI2_MISO
Text GLabel 1875 5375 0    50   Input ~ 0
SPI2_MOSI
$Comp
L MCU_ST_STM32L4:STM32L433CCTx U1
U 1 1 60DA66C6
P 2475 4075
F 0 "U1" H 2875 5450 50  0000 C CNN
F 1 "STM32L422CBT6" H 2950 2575 50  0000 C CNN
F 2 "Package_QFP:LQFP-48_7x7mm_P0.5mm" H 1975 2675 50  0001 R CNN
F 3 "~" H 2475 4075 50  0001 C CNN
	1    2475 4075
	1    0    0    -1  
$EndComp
Text GLabel 1875 4175 0    60   Input ~ 0
SWO
NoConn ~ 3075 4075
Text GLabel 3075 4775 2    50   Input ~ 0
USART1_TX
Text GLabel 3075 4875 2    50   Input ~ 0
USART1_RX
$Comp
L power:+3.3VA #PWR0113
U 1 1 60B875EE
P 2575 2575
F 0 "#PWR0113" H 2575 2425 50  0001 C CNN
F 1 "+3.3VA" H 2590 2748 50  0000 C CNN
F 2 "" H 2575 2575 50  0001 C CNN
F 3 "" H 2575 2575 50  0001 C CNN
	1    2575 2575
	1    0    0    -1  
$EndComp
$Comp
L power:+3.3V #PWR0114
U 1 1 60B8917D
P 2275 2575
F 0 "#PWR0114" H 2275 2425 50  0001 C CNN
F 1 "+3.3V" H 2290 2748 50  0000 C CNN
F 2 "" H 2275 2575 50  0001 C CNN
F 3 "" H 2275 2575 50  0001 C CNN
	1    2275 2575
	1    0    0    -1  
$EndComp
Text GLabel 3075 4275 2    50   Input ~ 0
SPI1_NSS
Text GLabel 3075 4375 2    50   Input ~ 0
SPI1_SCK
Text GLabel 3075 4475 2    50   Input ~ 0
SPI1_MISO
Text GLabel 3075 4575 2    50   Input ~ 0
SPI1_MOSI
Text GLabel 1875 3875 0    50   Input ~ 0
GPIO_PB0
Text GLabel 1875 3975 0    50   Input ~ 0
GPIO_PB1
Text GLabel 1875 3475 0    50   Input ~ 0
MCU_IRQ
Text GLabel 1350 3200 1    50   Input ~ 0
BOOT
Text GLabel 3075 4175 2    50   Input ~ 0
LED_STATUS
NoConn ~ 7875 4350
$Comp
L power:+3.3V #PWR0116
U 1 1 60BA2B3F
P 7375 3700
F 0 "#PWR0116" H 7375 3550 50  0001 C CNN
F 1 "+3.3V" H 7390 3873 50  0000 C CNN
F 2 "" H 7375 3700 50  0001 C CNN
F 3 "" H 7375 3700 50  0001 C CNN
	1    7375 3700
	1    0    0    -1  
$EndComp
Text GLabel 7875 5250 2    50   Input ~ 0
DCLK
$Comp
L RF:AX5043 U4
U 1 1 60AEFA05
P 7375 4750
F 0 "U4" H 7050 5625 50  0000 C CNN
F 1 "AX5043-1-TW30" H 7750 3850 50  0000 C CNN
F 2 "Package_DFN_QFN:QFN-28-1EP_5x5mm_P0.5mm_EP3.35x3.35mm_ThermalVias" H 9475 6200 50  0001 C CNN
F 3 "https://www.onsemi.com/pub/Collateral/AX5043-D.PDF" H 8725 6100 50  0001 C CNN
	1    7375 4750
	1    0    0    -1  
$EndComp
Text GLabel 7875 5150 2    50   Input ~ 0
SYSCLK
Wire Wire Line
	7375 3700 7375 3850
Wire Wire Line
	6725 5425 6575 5425
Wire Wire Line
	6725 5350 6725 5425
Wire Wire Line
	6875 5350 6725 5350
Wire Wire Line
	6675 5225 6575 5225
Wire Wire Line
	6675 5250 6675 5225
Wire Wire Line
	6875 5250 6675 5250
$Comp
L Device:L_Small L1
U 1 1 60DF2C47
P 6575 5325
F 0 "L1" H 6625 5475 50  0000 L CNN
F 1 "RC0402FR-070RL" H 6625 5350 50  0001 L CNN
F 2 "Inductor_SMD:L_0402_1005Metric" H 6575 5325 50  0001 C CNN
F 3 "~" H 6575 5325 50  0001 C CNN
F 4 "0r" H 6575 5325 50  0000 C CNN "Component-Value"
	1    6575 5325
	1    0    0    -1  
$EndComp
NoConn ~ 6875 5150
Text GLabel 7575 3850 1    50   Input ~ 0
VDDA2
Text GLabel 7475 3850 1    50   Input ~ 0
VDDA1
Text GLabel 7875 4550 2    50   Input ~ 0
AX_IRQ
Text GLabel 6875 4950 0    50   Input ~ 0
AX_SPI_CS
Text GLabel 6875 4850 0    50   Input ~ 0
AX_SPI_MOSI
Text GLabel 6875 4750 0    50   Input ~ 0
AX_SPI_MISO
Text GLabel 6875 4650 0    50   Input ~ 0
AX_SPI_CLK
NoConn ~ 7875 4450
NoConn ~ 7875 5350
Connection ~ 6700 4450
Wire Wire Line
	6875 4450 6700 4450
Wire Wire Line
	6700 4350 6700 4450
Wire Wire Line
	6875 4350 6700 4350
$Comp
L power:GND #PWR033
U 1 1 60D09A13
P 6700 4450
F 0 "#PWR033" H 6700 4200 50  0001 C CNN
F 1 "GND" H 6825 4375 50  0000 C CNN
F 2 "" H 6700 4450 50  0001 C CNN
F 3 "" H 6700 4450 50  0001 C CNN
	1    6700 4450
	1    0    0    -1  
$EndComp
Text GLabel 6875 4150 0    50   Input ~ 0
CLK16P
Text GLabel 7875 4950 2    50   Input ~ 0
ANTP
Text GLabel 7875 4850 2    50   Input ~ 0
ANTN
Text GLabel 6875 4050 0    50   Input ~ 0
CLK16N
Wire Wire Line
	7375 5650 7375 5725
$Comp
L power:GND #PWR034
U 1 1 60B002AC
P 7375 5725
F 0 "#PWR034" H 7375 5475 50  0001 C CNN
F 1 "GND" H 7380 5552 50  0000 C CNN
F 2 "" H 7375 5725 50  0001 C CNN
F 3 "" H 7375 5725 50  0001 C CNN
	1    7375 5725
	1    0    0    -1  
$EndComp
NoConn ~ 7875 4750
$Comp
L Connector:Conn_Coaxial T1
U 1 1 60BD01F6
P 6075 6850
F 0 "T1" H 6075 7050 60  0000 L CNN
F 1 "0732511150" H 6175 6775 60  0000 L CNN
F 2 "Connector_Coaxial:SMA_Molex_73251-1153_EdgeMount_Horizontal" H 6125 6700 60  0001 C CNN
F 3 "~" H 5775 7025 60  0001 C CNN
F 4 "50 ohm" H 7375 8625 60  0001 C CNN "Component-Value"
	1    6075 6850
	-1   0    0    -1  
$EndComp
$Comp
L Device:L_Small LC1
U 1 1 60BC1EEC
P 8425 6550
F 0 "LC1" H 8475 6700 50  0000 L CNN
F 1 "LQW15AN18NG8ZD" H 8475 6575 50  0001 L CNN
F 2 "Inductor_SMD:L_0402_1005Metric" H 8425 6550 50  0001 C CNN
F 3 "~" H 8425 6550 50  0001 C CNN
F 4 "18nH" H 8575 6550 50  0000 C CNN "Component-Value"
	1    8425 6550
	1    0    0    -1  
$EndComp
Wire Wire Line
	8425 6650 8825 6650
Connection ~ 8425 6650
Wire Wire Line
	7975 6650 8425 6650
$Comp
L Device:L_Small LC2
U 1 1 60BC310E
P 8425 7150
F 0 "LC2" H 8525 7150 50  0000 L CNN
F 1 "LQW15AN18NG8ZD" H 8473 7105 50  0001 L CNN
F 2 "Inductor_SMD:L_0402_1005Metric" H 8425 7150 50  0001 C CNN
F 3 "~" H 8425 7150 50  0001 C CNN
F 4 "18nH" H 8600 7075 50  0000 C CNN "Component-Value"
	1    8425 7150
	1    0    0    -1  
$EndComp
Wire Wire Line
	8425 7050 8825 7050
Connection ~ 8425 7050
Wire Wire Line
	7975 7050 8425 7050
$Comp
L Device:C_Small CT1
U 1 1 60BC4D91
P 7875 6650
F 0 "CT1" V 7700 6825 50  0000 C CNN
F 1 "GJM1555C1H2R7WB01D" V 7737 6650 50  0001 C CNN
F 2 "Capacitor_SMD:C_0402_1005Metric" H 7875 6650 50  0001 C CNN
F 3 "~" H 7875 6650 50  0001 C CNN
F 4 "2.7pF" V 7800 6850 50  0000 C CNN "Component-Value"
	1    7875 6650
	0    1    1    0   
$EndComp
$Comp
L Device:C_Small CT2
U 1 1 60BC5447
P 7875 7050
F 0 "CT2" V 7725 7250 50  0000 C CNN
F 1 "GJM1555C1H2R7WB01D" V 7737 7050 50  0001 C CNN
F 2 "Capacitor_SMD:C_0402_1005Metric" H 7875 7050 50  0001 C CNN
F 3 "~" H 7875 7050 50  0001 C CNN
F 4 "2.7pF" V 7800 7275 50  0000 C CNN "Component-Value"
	1    7875 7050
	0    1    1    0   
$EndComp
$Comp
L Device:L_Small LT1
U 1 1 60BC5ED4
P 7550 6650
F 0 "LT1" V 7375 6750 50  0000 C CNN
F 1 "LQW15AN18NG8ZD" V 7500 6650 50  0001 C CNN
F 2 "Inductor_SMD:L_0402_1005Metric" H 7550 6650 50  0001 C CNN
F 3 "~" H 7550 6650 50  0001 C CNN
F 4 "18nH" V 7450 6750 50  0000 C CNN "Component-Value"
	1    7550 6650
	0    1    1    0   
$EndComp
$Comp
L Device:L_Small LT2
U 1 1 60BC857F
P 7550 7050
F 0 "LT2" V 7369 7050 50  0000 C CNN
F 1 "LQW15AN18NG8ZD" V 7460 7050 50  0001 C CNN
F 2 "Inductor_SMD:L_0402_1005Metric" H 7550 7050 50  0001 C CNN
F 3 "~" H 7550 7050 50  0001 C CNN
F 4 "18nH" V 7450 7075 50  0000 C CNN "Component-Value"
	1    7550 7050
	0    1    1    0   
$EndComp
$Comp
L Device:C_Small CM1
U 1 1 60BC8E7C
P 7275 6550
F 0 "CM1" H 7275 6700 50  0000 L CNN
F 1 "GJM1555C1H6R2WB01D" H 7275 6625 50  0001 L CNN
F 2 "Capacitor_SMD:C_0402_1005Metric" H 7275 6550 50  0001 C CNN
F 3 "~" H 7275 6550 50  0001 C CNN
F 4 "6.2pF" H 7400 6625 50  0000 C CNN "Component-Value"
	1    7275 6550
	1    0    0    -1  
$EndComp
Wire Wire Line
	7275 6650 7450 6650
Connection ~ 7275 6650
Wire Wire Line
	6900 6650 7275 6650
$Comp
L Device:L_Small LB2
U 1 1 60BCA0AD
P 7050 7150
F 0 "LB2" H 6875 7100 50  0000 L CNN
F 1 "LQW15AN12NG8ZD" H 6850 6975 50  0001 L CNN
F 2 "Inductor_SMD:L_0402_1005Metric" H 7050 7150 50  0001 C CNN
F 3 "~" H 7050 7150 50  0001 C CNN
F 4 "12nH" H 6950 7025 50  0000 C CNN "Component-Value"
	1    7050 7150
	1    0    0    -1  
$EndComp
Connection ~ 7050 7050
Wire Wire Line
	6900 7050 7050 7050
$Comp
L Device:L_Small LB1
U 1 1 60BCB0EB
P 6800 6650
F 0 "LB1" V 6650 6800 50  0000 C CNN
F 1 "LQW15AN12NG8ZD" V 6710 6650 50  0001 C CNN
F 2 "Inductor_SMD:L_0402_1005Metric" H 6800 6650 50  0001 C CNN
F 3 "~" H 6800 6650 50  0001 C CNN
F 4 "12nH" V 6725 6800 50  0000 C CNN "Component-Value"
	1    6800 6650
	0    1    1    0   
$EndComp
$Comp
L Device:C_Small CB2
U 1 1 60BCCD32
P 6800 7050
F 0 "CB2" V 6650 7175 50  0000 C CNN
F 1 "GJM1555C1H2R7WB01D" V 6662 7050 50  0001 C CNN
F 2 "Capacitor_SMD:C_0402_1005Metric" H 6800 7050 50  0001 C CNN
F 3 "~" H 6800 7050 50  0001 C CNN
F 4 "2.7pF" V 6725 7200 50  0000 C CNN "Component-Value"
	1    6800 7050
	0    1    1    0   
$EndComp
Wire Wire Line
	8425 6100 8425 6450
Wire Wire Line
	7275 6450 7275 6100
Text GLabel 8825 6650 2    50   Input ~ 0
ANTP
Wire Wire Line
	7650 6650 7775 6650
Wire Wire Line
	7650 7050 7775 7050
Text GLabel 8825 7050 2    50   Input ~ 0
ANTN
$Comp
L power:GND #PWR016
U 1 1 60C1F9FC
P 8425 7525
F 0 "#PWR016" H 8425 7275 50  0001 C CNN
F 1 "GND" H 8430 7352 50  0000 C CNN
F 2 "" H 8425 7525 50  0000 C CNN
F 3 "" H 8425 7525 50  0000 C CNN
	1    8425 7525
	1    0    0    -1  
$EndComp
Wire Wire Line
	7275 7250 7275 7425
Wire Wire Line
	7050 7425 7275 7425
Wire Wire Line
	8425 7250 8425 7425
Wire Wire Line
	8425 7425 8425 7525
Connection ~ 8425 7425
Connection ~ 7275 7425
Wire Wire Line
	7275 7425 8425 7425
Wire Wire Line
	7275 6100 8425 6100
Wire Wire Line
	7050 7050 7275 7050
Wire Wire Line
	7275 7050 7450 7050
Connection ~ 7275 7050
$Comp
L Device:C_Small CM2
U 1 1 60BC943B
P 7275 7150
F 0 "CM2" H 7300 7050 50  0000 L CNN
F 1 "GJM1555C1H3R6WB01D" H 7300 6975 50  0001 L CNN
F 2 "Capacitor_SMD:C_0402_1005Metric" H 7275 7150 50  0001 C CNN
F 3 "~" H 7275 7150 50  0001 C CNN
F 4 "3.6pF" H 7325 6975 50  0000 L CNN "Component-Value"
	1    7275 7150
	1    0    0    -1  
$EndComp
Wire Wire Line
	6700 6650 6700 6850
Connection ~ 6700 6850
Wire Wire Line
	6700 6850 6700 7050
Wire Wire Line
	7050 7250 7050 7425
Connection ~ 7050 7425
Wire Wire Line
	7050 7425 6075 7425
$Comp
L power:GND #PWR015
U 1 1 60CAA070
P 8425 6000
F 0 "#PWR015" H 8425 5750 50  0001 C CNN
F 1 "GND" H 8430 5827 50  0000 C CNN
F 2 "" H 8425 6000 50  0000 C CNN
F 3 "" H 8425 6000 50  0000 C CNN
	1    8425 6000
	-1   0    0    1   
$EndComp
Connection ~ 8425 6100
Wire Wire Line
	8425 6000 8425 6100
Wire Wire Line
	8375 2900 8475 2900
Wire Wire Line
	8375 2875 8375 2900
Wire Wire Line
	8575 3000 8575 3075
Wire Wire Line
	8725 2900 8675 2900
Wire Wire Line
	8725 2875 8725 2900
Wire Wire Line
	8575 2725 8575 2800
$Comp
L power:GND #PWR023
U 1 1 60E3A8B1
P 8575 2725
F 0 "#PWR023" H 8575 2475 50  0001 C CNN
F 1 "GND" H 8580 2552 50  0000 C CNN
F 2 "" H 8575 2725 50  0001 C CNN
F 3 "" H 8575 2725 50  0001 C CNN
	1    8575 2725
	-1   0    0    1   
$EndComp
$Comp
L power:GND #PWR024
U 1 1 60E3A404
P 8575 3075
F 0 "#PWR024" H 8575 2825 50  0001 C CNN
F 1 "GND" H 8580 2902 50  0000 C CNN
F 2 "" H 8575 3075 50  0001 C CNN
F 3 "" H 8575 3075 50  0001 C CNN
	1    8575 3075
	1    0    0    -1  
$EndComp
Text GLabel 8725 2875 1    50   Input ~ 0
CLK16N
Text GLabel 8375 2875 1    50   Input ~ 0
CLK16P
Text GLabel 5475 9200 3    50   Input ~ 0
SYSCLK
$Comp
L Connector:TestPoint TP1
U 1 1 60E77E32
P 5475 9200
F 0 "TP1" H 5533 9318 50  0000 L CNN
F 1 "TestPoint" H 5533 9227 50  0000 L CNN
F 2 "TestPoint:TestPoint_Pad_1.0x1.0mm" H 5675 9200 50  0001 C CNN
F 3 "~" H 5675 9200 50  0001 C CNN
	1    5475 9200
	1    0    0    -1  
$EndComp
$Comp
L Mechanical:MountingHole H1
U 1 1 5C7C4C81
P 6250 8900
F 0 "H1" H 6350 8946 50  0000 L CNN
F 1 "MountingHole" H 6350 8855 50  0000 L CNN
F 2 "lib:MountingHole_2.7mm_M2.5_uHAT_RPi" H 6250 8900 50  0001 C CNN
F 3 "~" H 6250 8900 50  0001 C CNN
	1    6250 8900
	1    0    0    -1  
$EndComp
$Comp
L Mechanical:MountingHole H2
U 1 1 5C7C7FBC
P 6250 9100
F 0 "H2" H 6350 9146 50  0000 L CNN
F 1 "MountingHole" H 6350 9055 50  0000 L CNN
F 2 "lib:MountingHole_2.7mm_M2.5_uHAT_RPi" H 6250 9100 50  0001 C CNN
F 3 "~" H 6250 9100 50  0001 C CNN
	1    6250 9100
	1    0    0    -1  
$EndComp
$Comp
L Mechanical:MountingHole H3
U 1 1 5C7C8014
P 6250 9300
F 0 "H3" H 6350 9346 50  0000 L CNN
F 1 "MountingHole" H 6350 9255 50  0000 L CNN
F 2 "lib:MountingHole_2.7mm_M2.5_uHAT_RPi" H 6250 9300 50  0001 C CNN
F 3 "~" H 6250 9300 50  0001 C CNN
	1    6250 9300
	1    0    0    -1  
$EndComp
$Comp
L Mechanical:MountingHole H4
U 1 1 5C7C8030
P 6250 9500
F 0 "H4" H 6350 9546 50  0000 L CNN
F 1 "MountingHole" H 6350 9455 50  0000 L CNN
F 2 "lib:MountingHole_2.7mm_M2.5_uHAT_RPi" H 6250 9500 50  0001 C CNN
F 3 "~" H 6250 9500 50  0001 C CNN
	1    6250 9500
	1    0    0    -1  
$EndComp
NoConn ~ 11375 5700
Wire Wire Line
	11900 5100 12175 5100
Wire Wire Line
	11900 5025 11900 5100
$Comp
L power:PWR_FLAG #FLG0101
U 1 1 61031872
P 11900 5025
F 0 "#FLG0101" H 11900 5100 50  0001 C CNN
F 1 "PWR_FLAG" H 11900 5199 50  0000 C CNN
F 2 "" H 11900 5025 50  0001 C CNN
F 3 "~" H 11900 5025 50  0001 C CNN
	1    11900 5025
	1    0    0    -1  
$EndComp
Connection ~ 12175 5100
Wire Wire Line
	12175 4875 12175 5100
$Comp
L wp_symbols:P3.3V #PWR0110
U 1 1 61023B41
P 12175 4875
F 0 "#PWR0110" H 12175 4725 50  0001 C CNN
F 1 "P3.3V" H 12190 5048 50  0000 C CNN
F 2 "" H 12175 4875 50  0001 C CNN
F 3 "" H 12175 4875 50  0001 C CNN
	1    12175 4875
	1    0    0    -1  
$EndComp
Wire Wire Line
	13225 4900 13225 5100
$Comp
L wp_symbols:P5V #PWR0104
U 1 1 60D906BE
P 13225 4900
F 0 "#PWR0104" H 13225 4750 50  0001 C CNN
F 1 "P5V" H 13240 5073 50  0000 C CNN
F 2 "" H 13225 4900 50  0001 C CNN
F 3 "" H 13225 4900 50  0001 C CNN
	1    13225 4900
	1    0    0    -1  
$EndComp
NoConn ~ 11375 5800
Text GLabel 11375 6500 0    50   Input ~ 0
PI_MCU_IRQ
Wire Wire Line
	13225 5100 13575 5100
Text GLabel 13975 6200 2    50   Input ~ 0
PI_SPI_CS
Wire Wire Line
	11375 6500 12425 6500
Text GLabel 11375 6000 0    50   Input ~ 0
PI_SPI_MOSI
Text GLabel 11375 6100 0    50   Input ~ 0
PI_SPI_MISO
Text GLabel 11375 6200 0    50   Input ~ 0
PI_SPI_CLK
$Comp
L Connector_Generic:Conn_02x20_Odd_Even J2
U 1 1 5C77771F
P 12625 6000
F 0 "J2" H 12675 7117 50  0000 C CNN
F 1 "SSQ-120-23-F-D" H 12675 7026 50  0000 C CNN
F 2 "lib:PinSocket_2x20_P2.54mm_Vertical_Centered_Anchor" H 12625 6000 50  0001 C CNN
F 3 "~" H 12625 6000 50  0001 C CNN
	1    12625 6000
	1    0    0    -1  
$EndComp
$Comp
L power:GND #PWR026
U 1 1 5C777805
P 12225 7150
F 0 "#PWR026" H 12225 6900 50  0001 C CNN
F 1 "GND" H 12230 6977 50  0001 C CNN
F 2 "" H 12225 7150 50  0001 C CNN
F 3 "" H 12225 7150 50  0001 C CNN
	1    12225 7150
	1    0    0    -1  
$EndComp
$Comp
L power:GND #PWR028
U 1 1 5C777838
P 13125 7150
F 0 "#PWR028" H 13125 6900 50  0001 C CNN
F 1 "GND" H 13130 6977 50  0001 C CNN
F 2 "" H 13125 7150 50  0001 C CNN
F 3 "" H 13125 7150 50  0001 C CNN
	1    13125 7150
	1    0    0    -1  
$EndComp
Wire Wire Line
	12425 5500 12225 5500
Wire Wire Line
	12225 5500 12225 6300
Wire Wire Line
	12425 6300 12225 6300
Connection ~ 12225 6300
Wire Wire Line
	12225 6300 12225 7000
Wire Wire Line
	12425 7000 12225 7000
Connection ~ 12225 7000
Wire Wire Line
	12225 7000 12225 7150
Wire Wire Line
	12925 5300 13125 5300
Wire Wire Line
	13125 5300 13125 5700
Wire Wire Line
	12925 5700 13125 5700
Connection ~ 13125 5700
Wire Wire Line
	13125 5700 13125 6000
Wire Wire Line
	12925 6000 13125 6000
Connection ~ 13125 6000
Wire Wire Line
	12925 6500 13125 6500
Wire Wire Line
	13125 6000 13125 6500
Connection ~ 13125 6500
Wire Wire Line
	13125 6500 13125 6700
Wire Wire Line
	12925 6700 13125 6700
Connection ~ 13125 6700
Wire Wire Line
	13125 6700 13125 7150
Wire Wire Line
	12425 5900 12175 5900
Wire Wire Line
	12175 5900 12175 5100
Wire Wire Line
	12925 5100 13225 5100
Wire Wire Line
	12925 5200 13225 5200
Wire Wire Line
	13225 5200 13225 5100
Connection ~ 13225 5100
Wire Wire Line
	12175 5100 12425 5100
$Comp
L power:PWR_FLAG #FLG03
U 1 1 5C77CEFA
P 13575 5000
F 0 "#FLG03" H 13575 5075 50  0001 C CNN
F 1 "PWR_FLAG" H 13575 5174 50  0000 C CNN
F 2 "" H 13575 5000 50  0001 C CNN
F 3 "~" H 13575 5000 50  0001 C CNN
	1    13575 5000
	1    0    0    -1  
$EndComp
Wire Wire Line
	13575 5000 13575 5100
Text Label 11475 5200 0    50   ~ 0
GPIO2_SDA1
Text Label 11475 5300 0    50   ~ 0
GPIO3_SCL1
Text Label 11475 5400 0    50   ~ 0
GPIO4_GPIO_GCLK
Text Label 11475 5600 0    50   ~ 0
GPIO17_GEN0
Text Label 11475 5700 0    50   ~ 0
GPIO27_GEN2
Text Label 11475 5800 0    50   ~ 0
GPIO22_GEN3
Text Label 11475 6000 0    50   ~ 0
GPIO10_SPI_MOSI
Wire Wire Line
	11375 6000 12425 6000
Wire Wire Line
	11375 6100 12425 6100
Wire Wire Line
	11375 6200 12425 6200
Wire Wire Line
	11375 6400 12425 6400
Wire Wire Line
	11375 6600 12425 6600
Wire Wire Line
	11375 6700 12425 6700
Wire Wire Line
	11375 6800 12425 6800
Wire Wire Line
	11375 6900 12425 6900
Wire Wire Line
	11375 5800 12425 5800
Wire Wire Line
	11375 5700 12425 5700
Wire Wire Line
	11375 5600 12425 5600
Wire Wire Line
	11375 5400 12425 5400
Wire Wire Line
	11375 5300 12425 5300
Wire Wire Line
	11375 5200 12425 5200
Text Label 11475 6100 0    50   ~ 0
GPIO9_SPI_MISO
Text Label 11475 6200 0    50   ~ 0
GPIO11_SPI_SCLK
Text Label 11475 6400 0    50   ~ 0
ID_SD
Text Label 11475 6500 0    50   ~ 0
GPIO5
Text Label 11475 6600 0    50   ~ 0
GPIO6
Text Label 11475 6700 0    50   ~ 0
GPIO13
Text Label 11475 6800 0    50   ~ 0
GPIO19
Text Label 11475 6900 0    50   ~ 0
GPIO26
NoConn ~ 11375 5200
NoConn ~ 11375 5300
NoConn ~ 11375 5400
NoConn ~ 11375 5600
NoConn ~ 11375 6400
NoConn ~ 11375 6700
NoConn ~ 11375 6800
NoConn ~ 11375 6900
Text Label 13275 5400 0    50   ~ 0
GPIO14_TXD0
Text Label 13275 5500 0    50   ~ 0
GPIO15_RXD0
Text Label 13275 5600 0    50   ~ 0
GPIO18_GEN1
Text Label 13275 5800 0    50   ~ 0
GPIO23_GEN4
Text Label 13275 5900 0    50   ~ 0
GPIO24_GEN5
Text Label 13275 6100 0    50   ~ 0
GPIO25_GEN6
Text Label 13275 6200 0    50   ~ 0
GPIO8_SPI_CE0_N
Text Label 13275 6300 0    50   ~ 0
GPIO7_SPI_CE1_N
Wire Wire Line
	12925 6200 13975 6200
Wire Wire Line
	12925 6300 13975 6300
Text Label 13275 6400 0    50   ~ 0
ID_SC
Text Label 13275 6600 0    50   ~ 0
GPIO12
Text Label 13275 6800 0    50   ~ 0
GPIO16
Text Label 13275 6900 0    50   ~ 0
GPIO20
Text Label 13275 7000 0    50   ~ 0
GPIO21
Wire Wire Line
	12925 5400 13975 5400
Wire Wire Line
	12925 5500 13975 5500
Wire Wire Line
	12925 5600 13975 5600
Wire Wire Line
	12925 5800 13975 5800
Wire Wire Line
	12925 5900 13975 5900
Wire Wire Line
	12925 6100 13975 6100
Wire Wire Line
	12925 6400 13975 6400
Wire Wire Line
	12925 6600 13975 6600
Wire Wire Line
	12925 6800 13975 6800
Wire Wire Line
	12925 6900 13975 6900
NoConn ~ 13975 5400
NoConn ~ 13975 5500
NoConn ~ 13975 5600
NoConn ~ 13975 5800
NoConn ~ 13975 5900
NoConn ~ 13975 6100
NoConn ~ 13975 6300
NoConn ~ 13975 6400
NoConn ~ 13975 6600
NoConn ~ 13975 6800
NoConn ~ 13975 6900
NoConn ~ 13975 7000
Wire Wire Line
	12925 7000 13975 7000
Wire Wire Line
	11225 4025 11225 4000
Wire Wire Line
	11550 3950 11550 3850
Connection ~ 11550 3950
Wire Wire Line
	11650 3950 11550 3950
Wire Wire Line
	11550 3850 11650 3850
Wire Wire Line
	11550 4025 11550 3950
Wire Wire Line
	11225 4025 11550 4025
$Comp
L power:+3.3V #PWR0119
U 1 1 6125C861
P 11225 4000
F 0 "#PWR0119" H 11225 3850 50  0001 C CNN
F 1 "+3.3V" H 11240 4173 50  0000 C CNN
F 2 "" H 11225 4000 50  0000 C CNN
F 3 "" H 11225 4000 50  0000 C CNN
	1    11225 4000
	1    0    0    -1  
$EndComp
Text GLabel 12150 3950 2    50   Input ~ 0
BOOT
Text GLabel 12150 3850 2    50   Input ~ 0
MUX_IN
Wire Wire Line
	12300 3250 12150 3250
Wire Wire Line
	12300 3175 12300 3250
$Comp
L power:+3.3V #PWR0118
U 1 1 6114D6A4
P 12300 3175
F 0 "#PWR0118" H 12300 3025 50  0001 C CNN
F 1 "+3.3V" H 12315 3348 50  0000 C CNN
F 2 "" H 12300 3175 50  0000 C CNN
F 3 "" H 12300 3175 50  0000 C CNN
	1    12300 3175
	1    0    0    -1  
$EndComp
Wire Wire Line
	11100 3250 11650 3250
Text GLabel 12150 3450 2    50   Input ~ 0
GPIO_PB0
Text GLabel 11650 3450 0    50   Input ~ 0
GPIO_PB1
Text GLabel 11650 3550 0    50   Input ~ 0
SPI1_MOSI
Text GLabel 11650 3650 0    50   Input ~ 0
SPI1_SCK
Text GLabel 12150 3650 2    50   Input ~ 0
SPI1_NSS
Text GLabel 12150 3550 2    50   Input ~ 0
SPI1_MISO
Text GLabel 11650 3350 0    50   Input ~ 0
USART1_RX
Text GLabel 12150 3350 2    50   Input ~ 0
USART1_TX
$Comp
L power:GND #PWR0111
U 1 1 610C8747
P 11100 3250
F 0 "#PWR0111" H 11100 3000 50  0001 C CNN
F 1 "GND" H 11105 3077 50  0000 C CNN
F 2 "" H 11100 3250 50  0001 C CNN
F 3 "" H 11100 3250 50  0001 C CNN
	1    11100 3250
	1    0    0    -1  
$EndComp
$Comp
L Connector_Generic:Conn_02x08_Odd_Even J5
U 1 1 61041F92
P 11850 3550
F 0 "J5" H 11900 3967 50  0000 C CNN
F 1 "61301621121" H 11925 3025 50  0000 C CNN
F 2 "Connector_PinHeader_2.54mm:PinHeader_2x08_P2.54mm_Vertical" H 11850 3550 50  0001 C CNN
F 3 "~" H 11850 3550 50  0001 C CNN
	1    11850 3550
	1    0    0    -1  
$EndComp
Text GLabel 13750 3650 2    60   Input ~ 0
SWO
Text GLabel 13750 3850 2    50   Input ~ 0
NRST
Connection ~ 13150 3850
Wire Wire Line
	13250 3850 13150 3850
Connection ~ 13150 3650
Wire Wire Line
	13150 3650 13150 3850
Wire Wire Line
	13250 3550 13150 3550
$Comp
L power:GND #PWR07
U 1 1 5824BA14
P 13150 3850
F 0 "#PWR07" H 13150 3600 50  0001 C CNN
F 1 "GND" H 13155 3677 50  0000 C CNN
F 2 "" H 13150 3850 50  0000 C CNN
F 3 "" H 13150 3850 50  0000 C CNN
	1    13150 3850
	1    0    0    -1  
$EndComp
Text GLabel 13750 3550 2    60   Input ~ 0
SWCLK
Text GLabel 13750 3450 2    60   Input ~ 0
SWDIO
Wire Wire Line
	13150 3450 13250 3450
Wire Wire Line
	13150 3175 13150 3450
Wire Wire Line
	13150 3650 13250 3650
Wire Wire Line
	13150 3550 13150 3650
NoConn ~ 13250 3750
NoConn ~ 13750 3750
$Comp
L power:+3.3V #PWR06
U 1 1 5824BBC1
P 13150 3175
F 0 "#PWR06" H 13150 3025 50  0001 C CNN
F 1 "+3.3V" H 13165 3348 50  0000 C CNN
F 2 "" H 13150 3175 50  0000 C CNN
F 3 "" H 13150 3175 50  0000 C CNN
	1    13150 3175
	1    0    0    -1  
$EndComp
$Comp
L Connector_Generic:Conn_02x05_Odd_Even J1
U 1 1 58226930
P 13450 3650
F 0 "J1" H 13350 4175 60  0000 C CNN
F 1 "20021121-00010C4LF" H 13800 4075 60  0000 C CNN
F 2 "Connector_PinHeader_1.27mm:PinHeader_2x05_P1.27mm_Vertical_SMD" H 14300 3900 60  0001 C CNN
F 3 "~" H 14300 3200 60  0001 C CNN
	1    13450 3650
	1    0    0    -1  
$EndComp
Wire Wire Line
	2200 10500 2200 10550
$Comp
L power:GND #PWR0109
U 1 1 6119CB3B
P 2200 10550
F 0 "#PWR0109" H 2200 10300 50  0001 C CNN
F 1 "GND" H 2205 10377 50  0000 C CNN
F 2 "" H 2200 10550 50  0001 C CNN
F 3 "" H 2200 10550 50  0001 C CNN
	1    2200 10550
	1    0    0    -1  
$EndComp
Wire Wire Line
	1975 10300 2200 10300
Wire Wire Line
	1500 10300 1975 10300
Text GLabel 1500 10300 0    50   Input ~ 0
MUX_IN
$Comp
L Device:R_Small R7
U 1 1 60E1BDF8
P 2200 10400
F 0 "R7" H 2259 10446 50  0000 L CNN
F 1 "RC0402JR-0710KL" H 2259 10355 50  0001 L CNN
F 2 "Resistor_SMD:R_0402_1005Metric" H 2200 10400 50  0001 C CNN
F 3 "~" H 2200 10400 50  0001 C CNN
F 4 "10k" H 2325 10375 50  0000 C CNN "Component-Value"
	1    2200 10400
	1    0    0    -1  
$EndComp
NoConn ~ 2350 9550
NoConn ~ 3750 10250
NoConn ~ 3750 9550
Text GLabel 3750 10150 2    50   Input ~ 0
MCU_IRQ
Connection ~ 1975 10300
Wire Wire Line
	1975 10000 1975 10300
Wire Wire Line
	2350 10000 2350 10050
Connection ~ 2350 10000
Wire Wire Line
	1975 10000 2350 10000
Wire Wire Line
	1775 9975 1775 10050
Wire Wire Line
	1775 9750 1775 9775
Wire Wire Line
	2350 9750 1775 9750
$Comp
L power:GND #PWR0108
U 1 1 60E45626
P 1775 10050
F 0 "#PWR0108" H 1775 9800 50  0001 C CNN
F 1 "GND" H 1780 9877 50  0000 C CNN
F 2 "" H 1775 10050 50  0001 C CNN
F 3 "" H 1775 10050 50  0001 C CNN
	1    1775 10050
	1    0    0    -1  
$EndComp
$Comp
L Device:R_Small R6
U 1 1 60E45020
P 1775 9875
F 0 "R6" H 1834 9921 50  0000 L CNN
F 1 "RC0402JR-0710KL" H 1834 9830 50  0001 L CNN
F 2 "Resistor_SMD:R_0402_1005Metric" H 1775 9875 50  0001 C CNN
F 3 "~" H 1775 9875 50  0001 C CNN
F 4 "10k" H 1900 9850 50  0000 C CNN "Component-Value"
	1    1775 9875
	1    0    0    -1  
$EndComp
Text GLabel 3750 9250 2    50   Input ~ 0
PI_SPI_CLK
Text GLabel 3750 9150 2    50   Input ~ 0
PI_SPI_MISO
Text GLabel 3750 9450 2    50   Input ~ 0
PI_MCU_IRQ
Text GLabel 2350 9450 0    50   Input ~ 0
AX_IRQ
Text GLabel 3750 10050 2    50   Input ~ 0
SPI2_CS
Text GLabel 3750 9350 2    50   Input ~ 0
PI_SPI_CS
Text GLabel 3750 9950 2    50   Input ~ 0
SPI2_SCLK
Text GLabel 3750 9850 2    50   Input ~ 0
SPI2_MISO
Text GLabel 3750 9750 2    50   Input ~ 0
SPI2_MOSI
Text GLabel 3750 9050 2    50   Input ~ 0
PI_SPI_MOSI
Text GLabel 2350 9350 0    50   Input ~ 0
AX_SPI_CS
Text GLabel 2350 9250 0    50   Input ~ 0
AX_SPI_CLK
Text GLabel 2350 9150 0    50   Input ~ 0
AX_SPI_MISO
Text GLabel 2350 9050 0    50   Input ~ 0
AX_SPI_MOSI
Wire Wire Line
	2350 9950 2350 10000
$Comp
L power:+3.3V #PWR0107
U 1 1 60E6F4B9
P 3050 8450
F 0 "#PWR0107" H 3050 8300 50  0001 C CNN
F 1 "+3.3V" H 3065 8623 50  0000 C CNN
F 2 "" H 3050 8450 50  0000 C CNN
F 3 "" H 3050 8450 50  0000 C CNN
	1    3050 8450
	1    0    0    -1  
$EndComp
Wire Wire Line
	3050 10450 3050 10525
$Comp
L power:GND #PWR0106
U 1 1 60E5E246
P 3050 10525
F 0 "#PWR0106" H 3050 10275 50  0001 C CNN
F 1 "GND" H 3055 10352 50  0000 C CNN
F 2 "" H 3050 10525 50  0001 C CNN
F 3 "" H 3050 10525 50  0001 C CNN
	1    3050 10525
	1    0    0    -1  
$EndComp
$Comp
L Analog_Switch:TS3A27518ERTW U7
U 1 1 60E495F2
P 3050 9650
F 0 "U7" H 3575 10425 50  0000 C CNN
F 1 "TS3A27518ERTW" H 3450 8875 50  0000 C CNN
F 2 "Package_DFN_QFN:WQFN-24-1EP_4x4mm_P0.5mm_EP2.6x2.6mm_ThermalVias" H 3050 10650 50  0001 C CNN
F 3 "http://www.ti.com/lit/ds/symlink/ts3a27518e.pdf" H 3050 9550 50  0001 C CNN
	1    3050 9650
	1    0    0    -1  
$EndComp
Wire Wire Line
	1250 1150 1400 1150
Wire Wire Line
	1725 1600 1875 1600
Wire Wire Line
	1875 1600 2025 1600
Connection ~ 1875 1600
Wire Notes Line
	5000 600  9350 600 
Wire Notes Line
	9350 600  9350 2075
Wire Notes Line
	9350 2075 5000 2075
Wire Notes Line
	5000 2075 5000 600 
Text Notes 5025 575  0    50   ~ 10
USB connector and ESD protection
Wire Wire Line
	1350 3200 1350 3275
Connection ~ 1350 3275
Wire Notes Line
	4650 600  1000 600 
Wire Notes Line
	1000 600  1000 7775
Wire Notes Line
	1000 7775 4650 7775
Wire Notes Line
	4650 7775 4650 600 
Text Notes 1075 575  0    50   ~ 10
MCU subsystem
Wire Notes Line
	5000 2350 5000 7775
Wire Notes Line
	5000 7775 9350 7775
Wire Notes Line
	9350 7775 9350 2350
Wire Notes Line
	9350 2350 5000 2350
Text Notes 5050 2300 0    50   ~ 10
RF subsystem
Wire Notes Line
	1000 8000 4650 8000
Wire Notes Line
	4650 8000 4650 10825
Wire Notes Line
	4650 10825 1000 10825
Wire Notes Line
	1000 10825 1000 8000
Text Notes 1050 7975 0    50   ~ 10
SWITCH/MUX
Wire Notes Line
	5000 8000 9350 8000
Wire Notes Line
	9350 8000 9350 10825
Wire Notes Line
	9350 10825 5000 10825
Wire Notes Line
	5000 10825 5000 8000
Text Notes 5125 7975 0    50   ~ 10
MISC
Wire Notes Line
	10250 600  15225 600 
Wire Notes Line
	15225 600  15225 2225
Wire Notes Line
	15225 2225 10250 2225
Wire Notes Line
	10250 2225 10250 600 
Text Notes 10375 575  0    50   ~ 10
3v3 Regulator
Wire Notes Line
	10250 2500 15225 2500
Wire Notes Line
	15225 2500 15225 7400
Wire Notes Line
	15225 7400 10250 7400
Wire Notes Line
	10250 7400 10250 2500
Text Notes 10325 2425 0    50   ~ 10
Connectors
NoConn ~ 12150 3750
NoConn ~ 11650 3750
NoConn ~ 11375 6600
$Comp
L Device:C C19
U 1 1 5816AC4F
P 14850 1575
F 0 "C19" H 14975 1725 60  0000 L CNN
F 1 "GCJ21BR71E105KA12L" H 14825 1862 60  0001 C CNN
F 2 "Capacitor_SMD:C_0805_2012Metric" H 15100 1625 60  0001 C CNN
F 3 "~" H 15100 1625 60  0001 C CNN
F 4 "1uF" H 15025 1575 60  0000 L CNN "Component-Value"
	1    14850 1575
	1    0    0    -1  
$EndComp
Wire Wire Line
	14850 1425 14850 1325
Connection ~ 14850 1325
Wire Wire Line
	14850 1725 14850 1875
Wire Wire Line
	3725 7000 3725 7150
Wire Wire Line
	3725 6800 3725 6700
Connection ~ 3725 6700
Wire Wire Line
	3050 7000 3050 7150
Wire Wire Line
	3050 6800 3050 6700
Connection ~ 3050 6700
Wire Wire Line
	4125 3550 4125 3675
Connection ~ 4125 3675
$Comp
L Device:C_Small C6
U 1 1 582194E2
P 3675 1400
F 0 "C6" H 3725 1575 60  0000 L CNN
F 1 "GRM155R61A104KA01D" H 3650 1687 60  0001 C CNN
F 2 "Capacitor_SMD:C_0402_1005Metric" H 3925 1450 60  0001 C CNN
F 3 "~" H 3925 1450 60  0001 C CNN
F 4 "0.10uF" H 3700 1475 60  0000 L CNN "Component-Value"
	1    3675 1400
	1    0    0    -1  
$EndComp
Wire Wire Line
	4000 1300 4000 1150
Wire Wire Line
	4000 1500 4000 1600
Wire Wire Line
	3300 1600 3675 1600
Wire Wire Line
	3675 1500 3675 1600
Connection ~ 3675 1600
Wire Wire Line
	3675 1600 4000 1600
Connection ~ 3675 1150
Wire Wire Line
	3675 1150 4000 1150
Wire Wire Line
	3675 1300 3675 1150
Wire Wire Line
	3300 1300 3300 1150
Connection ~ 3300 1150
Wire Wire Line
	3300 1150 3675 1150
Wire Wire Line
	3300 1500 3300 1600
Wire Wire Line
	2575 1600 2950 1600
Wire Wire Line
	2950 1300 2950 1150
Connection ~ 2950 1150
Wire Wire Line
	2950 1150 3300 1150
Wire Wire Line
	2950 1500 2950 1600
Connection ~ 2950 1600
Wire Wire Line
	2950 1600 3300 1600
Wire Wire Line
	2575 1300 2575 1150
Connection ~ 2575 1150
Wire Wire Line
	2575 1500 2575 1600
Wire Wire Line
	2575 1150 2950 1150
$Comp
L Device:C_Small C4
U 1 1 58260A2B
P 2950 1400
F 0 "C4" H 2800 1550 60  0000 L CNN
F 1 "GRM155R61A104KA01D" H 2925 1687 60  0001 C CNN
F 2 "Capacitor_SMD:C_0402_1005Metric" H 3200 1450 60  0001 C CNN
F 3 "~" H 3200 1450 60  0001 C CNN
F 4 "0.10uF" H 2625 1475 60  0000 L CNN "Component-Value"
	1    2950 1400
	-1   0    0    -1  
$EndComp
Wire Wire Line
	2025 1300 2025 1150
Connection ~ 2025 1150
Wire Wire Line
	2025 1500 2025 1600
Wire Wire Line
	1725 1500 1725 1600
Wire Wire Line
	1725 1300 1725 1150
Wire Wire Line
	1600 1150 1725 1150
Connection ~ 1725 1150
Wire Wire Line
	1725 1150 2025 1150
$Comp
L Device:C_Small C2
U 1 1 58219E8B
P 2025 1400
F 0 "C2" H 2075 1525 60  0000 L CNN
F 1 "GRM155R61A103KA01D" H 2000 1687 60  0001 C CNN
F 2 "Capacitor_SMD:C_0402_1005Metric" H 2275 1450 60  0001 C CNN
F 3 "~" H 2275 1450 60  0001 C CNN
F 4 "10nF" H 2125 1450 60  0000 L CNN "Component-Value"
	1    2025 1400
	1    0    0    -1  
$EndComp
$Comp
L Device:C_Small C5
U 1 1 5821941D
P 3300 1400
F 0 "C5" H 3350 1550 60  0000 L CNN
F 1 "GRM155R61A104KA01D" H 3275 1687 60  0001 C CNN
F 2 "Capacitor_SMD:C_0402_1005Metric" H 3550 1450 60  0001 C CNN
F 3 "~" H 3550 1450 60  0001 C CNN
F 4 "0.10uF" H 3350 1475 60  0000 L CNN "Component-Value"
	1    3300 1400
	1    0    0    -1  
$EndComp
Wire Wire Line
	3525 3175 3625 3175
Wire Wire Line
	3525 3175 3525 3675
Wire Wire Line
	4025 3175 4125 3175
Connection ~ 4125 3175
Wire Wire Line
	4125 3175 4125 3350
Wire Wire Line
	4125 3175 4250 3175
Wire Wire Line
	3050 6700 3250 6700
Wire Wire Line
	10600 1025 11425 1025
$Comp
L Device:Q_PMOS_GSD Q1
U 1 1 58229372
P 11425 1225
F 0 "Q1" V 11625 1450 60  0000 C CNN
F 1 "DMG2307L" V 11737 1225 60  0000 C CNN
F 2 "Package_TO_SOT_SMD:SOT-23" H 12725 2875 60  0001 C CNN
F 3 "~" H 13025 3075 60  0001 C CNN
	1    11425 1225
	0    -1   1    0   
$EndComp
Connection ~ 11425 1025
Wire Wire Line
	11425 1025 11600 1025
Wire Wire Line
	11625 1325 11900 1325
Wire Wire Line
	11025 1325 11225 1325
Wire Wire Line
	6275 6850 6700 6850
Wire Wire Line
	6075 7050 6075 7425
$Comp
L Power_Protection:USBLC6-2SC6 U3
U 1 1 611EC888
P 6500 1350
F 0 "U3" H 6725 1750 50  0000 C CNN
F 1 "USBLC6-2SC6" H 6875 950 50  0000 C CNN
F 2 "Package_TO_SOT_SMD:SOT-23-6" H 5750 1750 50  0001 C CNN
F 3 "~" H 6700 1700 50  0001 C CNN
	1    6500 1350
	1    0    0    -1  
$EndComp
$Comp
L Device:Crystal_GND24_Small Y1
U 1 1 60F314DE
P 8575 2900
F 0 "Y1" H 8800 2800 50  0000 L CNN
F 1 "ABM10-16.000MHZ-E20-T" H 8025 2425 50  0000 L CNN
F 2 "Crystal:Crystal_SMD_Abracon_ABM10-4Pin_2.5x2.0mm" H 8575 2900 50  0001 C CNN
F 3 "~" H 8575 2900 50  0001 C CNN
	1    8575 2900
	1    0    0    -1  
$EndComp
$Comp
L Device:C_Small C13
U 1 1 60E4A487
P 2575 8625
F 0 "C13" H 2325 8550 60  0000 L CNN
F 1 "GRM155R61A104KA01D" H 2550 8912 60  0001 C CNN
F 2 "Capacitor_SMD:C_0402_1005Metric" H 2825 8675 60  0001 C CNN
F 3 "~" H 2825 8675 60  0001 C CNN
F 4 "0.10uF" H 2250 8725 60  0000 L CNN "Component-Value"
	1    2575 8625
	1    0    0    1   
$EndComp
$Comp
L power:GND #PWR0122
U 1 1 60E4A7FB
P 2575 8750
F 0 "#PWR0122" H 2575 8500 50  0001 C CNN
F 1 "GND" H 2580 8577 50  0000 C CNN
F 2 "" H 2575 8750 50  0001 C CNN
F 3 "" H 2575 8750 50  0001 C CNN
	1    2575 8750
	1    0    0    -1  
$EndComp
Wire Wire Line
	2575 8525 3050 8525
Wire Wire Line
	3050 8450 3050 8525
Connection ~ 3050 8525
Wire Wire Line
	3050 8525 3050 8850
Wire Wire Line
	2575 8725 2575 8750
$EndSCHEMATC
